module smsbboom

go 1.21.0

require (
	github.com/bytedance/sonic v1.10.0
	github.com/imroc/req/v3 v3.41.7
)

require (
	github.com/andybalholm/brotli v1.0.5 // indirect
	github.com/chenzhuoyu/base64x v0.0.0-20230717121745-296ad89f973d // indirect
	github.com/chenzhuoyu/iasm v0.9.0 // indirect
	github.com/gaukas/godicttls v0.0.4 // indirect
	github.com/go-task/slim-sprig v0.0.0-20230315185526-52ccab3ef572 // indirect
	github.com/golang/mock v1.6.0 // indirect
	github.com/google/pprof v0.0.0-20230811205829-9131a7e9cc17 // indirect
	github.com/hashicorp/errwrap v1.1.0 // indirect
	github.com/hashicorp/go-multierror v1.1.1 // indirect
	github.com/klauspost/compress v1.16.7 // indirect
	github.com/klauspost/cpuid/v2 v2.0.9 // indirect
	github.com/onsi/ginkgo/v2 v2.11.0 // indirect
	github.com/quic-go/qpack v0.4.0 // indirect
	github.com/quic-go/qtls-go1-20 v0.3.2 // indirect
	github.com/quic-go/quic-go v0.37.4 // indirect
	github.com/refraction-networking/utls v1.4.3 // indirect
	github.com/twitchyliquid64/golang-asm v0.15.1 // indirect
	golang.org/x/arch v0.0.0-20210923205945-b76863e36670 // indirect
	golang.org/x/crypto v0.12.0 // indirect
	golang.org/x/exp v0.0.0-20230811145659-89c5cff77bcb // indirect
	golang.org/x/mod v0.12.0 // indirect
	golang.org/x/net v0.14.0 // indirect
	golang.org/x/sys v0.11.0 // indirect
	golang.org/x/text v0.12.0 // indirect
	golang.org/x/tools v0.12.0 // indirect
)
